Assignment 10
…
nrc_joy <- get_sentiments("nrc") %>% 
  filter(sentiment == "joy")

tidy_books %>%
  filter(book == "Emma") %>%
  inner_join(nrc_joy) %>%
  count(word, sort = TRUE)

## # A tibble: 303 x 2
##    word        n
##    <chr>   <int>
##  1 good      359
##  2 young     192
##  3 friend    166
##  4 hope      143
##  5 happy     125
##  6 love      117
##  7 deal       92
##  8 found      92
##  9 present    89
## 10 kind       82
## # ... with 293 more rows
…
library(janeaustenr)
library(dplyr)
library(stringr)

original_books <- austen_books() %>%
  group_by(book) %>%
  mutate(linenumber = row_number(),
         chapter = cumsum(str_detect(text, regex("^chapter [\\divxlc]",
                                                 ignore_case = TRUE)))) %>%
  ungroup()

original_books

## # A tibble: 73,422 x 4
##    text                    book                linenumber chapter
##    <chr>                   <fct>                    <int>   <int>
##  1 "SENSE AND SENSIBILITY" Sense & Sensibility          1       0
##  2 ""                      Sense & Sensibility          2       0
##  3 "by Jane Austen"        Sense & Sensibility          3       0
##  4 ""                      Sense & Sensibility          4       0
##  5 "(1811)"                Sense & Sensibility          5       0
##  6 ""                      Sense & Sensibility          6       0
##  7 ""                      Sense & Sensibility          7       0
##  8 ""                      Sense & Sensibility          8       0
##  9 ""                      Sense & Sensibility          9       0
## 10 "CHAPTER 1"             Sense & Sensibility         10       1
## # ... with 73,412 more rows

library(tidytext)
tidy_books <- original_books %>%
  unnest_tokens(word, text)

tidy_books

## # A tibble: 725,055 x 4
##    book                linenumber chapter word       
##    <fct>                    <int>   <int> <chr>      
##  1 Sense & Sensibility          1       0 sense      
##  2 Sense & Sensibility          1       0 and        
##  3 Sense & Sensibility          1       0 sensibility
##  4 Sense & Sensibility          3       0 by         
##  5 Sense & Sensibility          3       0 jane       
##  6 Sense & Sensibility          3       0 austen     
##  7 Sense & Sensibility          5       0 1811       
##  8 Sense & Sensibility         10       1 chapter    
##  9 Sense & Sensibility         10       1 1          
## 10 Sense & Sensibility         13       1 the        
## # ... with 725,045 more rows

data(stop_words)

tidy_books <- tidy_books %>%
  anti_join(stop_words)

tidy_books %>%
  count(word, sort = TRUE) 

## # A tibble: 13,914 x 2
##    word       n
##    <chr>  <int>
##  1 miss    1855
##  2 time    1337
##  3 fanny    862
##  4 dear     822
##  5 lady     817
##  6 sir      806
##  7 day      797
##  8 emma     787
##  9 sister   727
## 10 house    699
## # ... with 13,904 more rows
…
 review_words_counted_positive

## # A tibble: 1 x 2
##   `c("word")`     n
##   <chr>       <int>
## 1 word        51576

  review_words_counted <- splitrs %>%
   count(review_id, business_id, stars, word) %>%
   ungroup()
  review_words_counted

## # A tibble: 913,381 x 5
##    review_id              business_id            stars word         n
##    <fct>                  <fct>                  <int> <fct>    <int>
##  1 --8hpKO4bkweLyEucdxI_w OdD1GuGNQ64ssJmMJ_D9RQ     4 a            2
##  2 --8hpKO4bkweLyEucdxI_w OdD1GuGNQ64ssJmMJ_D9RQ     4 A            1
##  3 --8hpKO4bkweLyEucdxI_w OdD1GuGNQ64ssJmMJ_D9RQ     4 alley        1
##  4 --8hpKO4bkweLyEucdxI_w OdD1GuGNQ64ssJmMJ_D9RQ     4 and          5
##  5 --8hpKO4bkweLyEucdxI_w OdD1GuGNQ64ssJmMJ_D9RQ     4 anywhere     1
##  6 --8hpKO4bkweLyEucdxI_w OdD1GuGNQ64ssJmMJ_D9RQ     4 back         2
##  7 --8hpKO4bkweLyEucdxI_w OdD1GuGNQ64ssJmMJ_D9RQ     4 band.        1
##  8 --8hpKO4bkweLyEucdxI_w OdD1GuGNQ64ssJmMJ_D9RQ     4 bar          1
##  9 --8hpKO4bkweLyEucdxI_w OdD1GuGNQ64ssJmMJ_D9RQ     4 be           1
## 10 --8hpKO4bkweLyEucdxI_w OdD1GuGNQ64ssJmMJ_D9RQ     4 beer         2
## # ... with 913,371 more rows

  #GetalltheSentiments
  bing_word_counts <- splitrs %>%
  inner_join(get_sentiments("bing")) %>%
  count(word, sentiment, sort = TRUE) %>%
  ungroup()
  
   bing_word_counts

## # A tibble: 2,757 x 3
##    word   sentiment     n
##    <chr>  <chr>     <int>
##  1 like   positive   4578
##  2 good   positive   3950
##  3 great  positive   3111
##  4 love   positive   1695
##  5 pretty positive   1686
##  6 nice   positive   1573
##  7 best   positive   1434
##  8 better positive   1084
##  9 right  positive    999
## 10 well   positive    941
## # ... with 2,747 more rows
…
